LAMMPS (29 Oct 2020)
OMP_NUM_THREADS environment is not set. Defaulting to 1 thread. (src/comm.cpp:94)
  using 1 OpenMP thread(s) per MPI task
######################################
# LAMMPS INPUT SCRIPT
# Copia modficada de in.melt original de los examples de LAMMPS!
# Nicolás Vazquez
######################################

# 3d Lennard-Jones melt

units		lj
atom_style	atomic

lattice		fcc 0.8442
Lattice spacing in x,y,z = 1.6795962 1.6795962 1.6795962
region		box block 0 25.5 0 25.5 0 25.5
create_box	1 box
Created orthogonal box = (0.0000000 0.0000000 0.0000000) to (42.829703 42.829703 42.829703)
  1 by 1 by 2 MPI processor grid
create_atoms	1 box
Created 66326 atoms
  create_atoms CPU = 0.004 seconds
mass		1 1.0

velocity	all create 3.0 87287

pair_style	lj/cut 2.5
pair_coeff	1 1 1.0 1.0 2.5

neighbor	0.3 bin
neigh_modify	every 20 delay 0 check no

fix		1 all nve

#Compute MSD (coef de difusión)
#compute 1 all msd


#dump		id all atom 50 dump.melt

#dump		2 all image 100 image.*.jpg type type #		axes yes 0.8 0.02 view 60 -30
#dump_modify	2 pad 3

#dump		3 all movie 25 movie.mp4 type type 		#axes yes 0.8 0.02 view 60 -30
#dump_modify	3 pad 3

#Output modificado
thermo_style custom step time pe ke etotal
thermo		1000
run		10000
Neighbor list info ...
  update every 20 steps, delay 0 steps, check no
  max neighbors/atom: 2000, page size: 100000
  master list distance cutoff = 2.8
  ghost atom cutoff = 2.8
  binsize = 1.4, bins = 31 31 31
  1 neighbor lists, perpetual/occasional/extra = 1 0 0
  (1) pair lj/cut, perpetual
      attributes: half, newton on
      pair build: half/bin/atomonly/newton
      stencil: half/bin/3d/newton
      bin: standard
Per MPI rank memory allocation (min/avg/max) = 14.88 | 14.89 | 14.89 Mbytes
Step Time PotEng KinEng TotEng 
       0            0   -5.3899409    4.4999322  -0.89000873 
    1000            5   -4.2815344    3.3409928  -0.94054164 
    2000           10   -4.2793642    3.3209295  -0.95843477 
    3000           15   -4.2875875     3.311709  -0.97587849 
    4000           20   -4.2964825    3.3029172  -0.99356535 
    5000           25   -4.2958853    3.2852047   -1.0106806 
    6000           30   -4.2985016    3.2708073   -1.0276943 
    7000           35   -4.3042971    3.2598115   -1.0444856 
    8000           40   -4.3237482    3.2627304   -1.0610178 
    9000           45   -4.3259601     3.248473   -1.0774871 
   10000           50   -4.3216983    3.2278828   -1.0938156 
Loop time of 148.141 on 2 procs for 10000 steps with 66326 atoms

Performance: 29161.313 tau/day, 67.503 timesteps/s
99.6% CPU use with 2 MPI tasks x 1 OpenMP threads

MPI task timing breakdown:
Section |  min time  |  avg time  |  max time  |%varavg| %total
---------------------------------------------------------------
Pair    | 125.54     | 126.17     | 126.81     |   5.6 | 85.17
Neigh   | 16.712     | 16.778     | 16.844     |   1.6 | 11.33
Comm    | 2.3707     | 2.9373     | 3.5039     |  33.1 |  1.98
Output  | 0.00098047 | 0.0010443  | 0.0011081  |   0.2 |  0.00
Modify  | 1.8543     | 1.8624     | 1.8705     |   0.6 |  1.26
Other   |            | 0.388      |            |       |  0.26

Nlocal:        33163.0 ave       33178 max       33148 min
Histogram: 1 0 0 0 0 0 0 0 0 1
Nghost:        20264.5 ave       20268 max       20261 min
Histogram: 1 0 0 0 0 0 0 0 0 1
Neighs:    1.25944e+06 ave 1.25993e+06 max 1.25895e+06 min
Histogram: 1 0 0 0 0 0 0 0 0 1

Total # of neighbors = 2518885
Ave neighs/atom = 37.977339
Neighbor list builds = 500
Dangerous builds not checked
Total wall time: 0:02:28
